werk.statt.codes: Static maps with mapbox background images (snapbox)
…
df_wber_diff <- res %>% 
  filter(wber>0) %>% #remove 'technical' precincts for mail & absentee voting 
  select(-contains("nuts")) %>% 
  group_by(indicator_sprengel) %>% 
  arrange(desc(election), .by_group=T) %>% 
  mutate(wber_diff=wber-lead(wber)) %>% 
  filter(election==2020) %>% 
  mutate(wber_diff_rel=wber_diff/wber) %>% 
  ungroup() %>% 
  mutate(change_indicator=case_when(wber_diff_rel>0 ~ "increase",
                                    wber_diff_rel<0 ~ "decrease",
                                    TRUE ~ as.character("stable")))

# A tibble: 1,483 x 4
   indicator_sprengel wber_diff wber_diff_rel change_indicator
                <dbl>     <dbl>         <dbl> <chr>           
 1               1001       -43       -0.0640 decrease        
 2               1002       -34       -0.0521 decrease        
 3               1003       -36       -0.0574 decrease        
 4               1004        -8       -0.0247 decrease        
 5               1005       -76       -0.104  decrease        
 6               1006       -43       -0.0814 decrease        
 7               1007       -74       -0.138  decrease        
 8               1008       -17       -0.0297 decrease        
 9               1009       -48       -0.0650 decrease        
10               1010       -31       -0.0442 decrease        
# ... with 1,473 more rows
…
