Segregation in Vienna's primary schools?
…
# only 257 out of 263 primary schools with destination data;
# 6 schools still without 'graduates'
length(unique(df_destination_data$properties_skz_vj))

[1] 257

df_destination_data

# A tibble: 4,871 x 17
   type  id    geometry properties_skz_~ properties_ipub~
   <chr> <chr> <lgl>    <chr>            <chr>           
 1 Feat~ ATLA~ NA       923081           01              
 2 Feat~ ATLA~ NA       923081           01              
 3 Feat~ ATLA~ NA       923081           01              
 4 Feat~ ATLA~ NA       923081           01              
 5 Feat~ ATLA~ NA       923081           01              
 6 Feat~ ATLA~ NA       923081           01              
 7 Feat~ ATLA~ NA       923081           01              
 8 Feat~ ATLA~ NA       923081           01              
 9 Feat~ ATLA~ NA       923081           01              
10 Feat~ ATLA~ NA       923081           01              
   properties_skz_~ properties_ipub~ properties_kart~ properties_beze~
   <chr>            <chr>            <chr>            <chr>           
 1 923042           02a              NMSH             Neue Mittelschu~
 2 923046           05a              NMSA             Bundesrealgymna~
 3 923092           02a              NMSH             Neue Mittelschu~
 4 923052           02a              NMSH             Neue Mittelschu~
 5 923066           05               AHS              Bundesrealgymna~
 6 923012           02a              NMSH             Neue Mittelschu~
 7 317036           05               AHS              Bundesgymnasium~
 8 923062           02a              NMSH             Private Neue Mi~
 9 915016           05               AHS              Bundesrealgymna~
10 910042           02a              NMSH             Neue Mittelschu~
   properties_plz properties_ort properties_str properties_anza~
   <chr>          <chr>          <chr>                     <int>
 1 1230           Wien           Dirmhirngasse~               10
 2 1230           Wien           Anton-Krieger~                9
 3 1230           Wien           Carlbergergas~                5
 4 1230           Wien           Bendagasse 1-2                5
 5 1230           Wien           Anton Baumgar~                5
 6 1230           Wien           Steinergasse ~                4
 7 2380           Perchtoldsdorf Roseggergasse~                0
 8 1230           Wien           Willergasse 55                0
 9 1150           Wien           Henriettenpla~                0
10 1100           Wien           Herzgasse 27                  0
# ... with 4,861 more rows, and 4 more variables:
#   properties_x_s2 <dbl>, properties_y_s2 <dbl>,
#   properties_ipub2_bezeichnung <chr>, school_link <glue>
…
df_difference

# A tibble: 32,896 x 5
# Groups:   pair_indicator [32,896]
   pair_indicator school_1 school_2        difference         diff_abs
   <chr>             <dbl> <chr>                <dbl>            <dbl>
 1 901011-901021    901011 901021    -0.0114942528736  0.0114942528736
 2 901011-901031    901011 901031    -0.159920039980   0.159920039980 
 3 901011-902011    901011 902011     0.0204342273308  0.0204342273308
 4 901011-902021    901011 902021     0.407682234832   0.407682234832 
 5 901011-902031    901011 902031     0.459986987638   0.459986987638 
 6 901011-902051    901011 902051     0.418255578093   0.418255578093 
 7 901011-902071    901011 902071     0.0659100829332  0.0659100829332
 8 901011-902081    901011 902081     0.466073414905   0.466073414905 
 9 901011-902091    901011 902091     0.0862068965517  0.0862068965517
10 901011-902101    901011 902101     0.349137931034   0.349137931034 
# ... with 32,886 more rows
…
# cacluate the factor by which one school's AHS differeds from another school's AHS ratio.
# the pmin/pmax function ensures that the school with the lower AHS ratio is
# is the denominator; makes comparison between school pairs easier;
df_main <- df_main %>%
  mutate(diff_factor = map2_dbl(
    school_1_n_rel, school_2_n_rel,
    function(x, y) pmax(x, y) / pmin(x, y)
  ))

# Here the full table with the data
df_main

# A tibble: 32,896 x 21
# Groups:   pair_indicator [32,896]
   pair_indicator school_1 school_2       difference        diff_abs
   <chr>             <dbl>    <dbl>            <dbl>           <dbl>
 1 901011-901021    901011   901021 -0.0114942528736 0.0114942528736
 2 901011-901031    901011   901031 -0.159920039980  0.159920039980 
 3 901011-902011    901011   902011  0.0204342273308 0.0204342273308
 4 901011-902021    901011   902021  0.407682234832  0.407682234832 
 5 901011-902031    901011   902031  0.459986987638  0.459986987638 
 6 901011-902051    901011   902051  0.418255578093  0.418255578093 
 7 901011-902071    901011   902071  0.0659100829332 0.0659100829332
 8 901011-902081    901011   902081  0.466073414905  0.466073414905 
 9 901011-902091    901011   902091  0.0862068965517 0.0862068965517
10 901011-902101    901011   902101  0.349137931034  0.349137931034 
   school_1_details school_1_lat school_1_long school_2_details
   <list>                  <dbl>         <dbl> <list>          
 1 <tibble [1 x 18~   48.2135351 16.3686268000 <tibble [1 x 18~
 2 <tibble [1 x 18~   48.2135351 16.3686268000 <tibble [1 x 18~
 3 <tibble [1 x 18~   48.2135351 16.3686268000 <tibble [1 x 18~
 4 <tibble [1 x 18~   48.2135351 16.3686268000 <tibble [1 x 18~
 5 <tibble [1 x 18~   48.2135351 16.3686268000 <tibble [1 x 18~
 6 <tibble [1 x 18~   48.2135351 16.3686268000 <tibble [1 x 18~
 7 <tibble [1 x 18~   48.2135351 16.3686268000 <tibble [1 x 18~
 8 <tibble [1 x 18~   48.2135351 16.3686268000 <tibble [1 x 18~
 9 <tibble [1 x 18~   48.2135351 16.3686268000 <tibble [1 x 18~
10 <tibble [1 x 18~   48.2135351 16.3686268000 <tibble [1 x 18~
   school_2_lat school_2_long address1 address2 school_1_erhalt~
          <dbl>         <dbl> <chr>    <chr>    <chr>           
 1  48.2071269  16.3787884000 Volkssc~ Volkssc~ öffentl.        
 2  48.2115609  16.3692501000 Volkssc~ Private~ öffentl.        
 3  48.1964153  16.4433338000 Volkssc~ Volkssc~ öffentl.        
 4  48.2149026  16.3876769000 Volkssc~ Volkssc~ öffentl.        
 5  48.22216310 16.3848147    Volkssc~ Volkssc~ öffentl.        
 6  48.2155407  16.3773783    Volkssc~ Volkssc~ öffentl.        
 7  48.2186668  16.3853998000 Volkssc~ Volkssc~ öffentl.        
 8  48.2205238  16.4049726    Volkssc~ Volkssc~ öffentl.        
 9  48.22407    16.3847968    Volkssc~ Volkssc~ öffentl.        
10  48.223532   16.402895     Volkssc~ Volkssc~ öffentl.        
# ... with 32,886 more rows, and 7 more variables:
#   school_2_erhalter <chr>, school_erhalter_indicator <chr>,
#   erhalter_type <chr>, school_1_n_rel <dbl>, school_2_n_rel <dbl>,
#   tooltip <chr>, diff_factor <dbl>
…
df_main %>%
  select(school_1, school_2, distance)

# A tibble: 32,896 x 3
   school_1 school_2        distance
      <dbl>    <dbl>           <dbl>
 1   901011   901021  1322.12586993 
 2   901011   901031   221.981756970
 3   901011   902011  8514.91714061 
 4   901011   902021  2125.67089786 
 5   901011   902031  2023.97252847 
 6   901011   902051   997.484473991
 7   901011   902071  1945.94081999 
 8   901011   902081  4114.26308218 
 9   901011   902091  2122.76126427 
10   901011   902101  3961.30726004 
# ... with 32,886 more rows
…
