werk.statt.codes: Austrian Parliament: MPs transparency and conflict of interest report
…
In the next step, I group the data by the row_indicator and combine the different text parts with the same row indicator into one string. As a result, we get a dataframe where each row contains one row of the table (including those parts after the line break). Hooray!

Code: Table with one row per position

df_rows <- df_linebreaks %>% 
  group_by(row_indicator) %>%
    summarise(text_combined = paste(text, collapse = " ")) %>%
    mutate(text_combined = text_combined %>% str_trim() %>% str_squish())

df_rows

# A tibble: 21 x 2
   row_indicator
           <dbl>
 1             1
 2             2
 3             3
 4             4
 5             5
 6             6
 7             7
 8             8
 9             9
10            10
   text_combined                                                      
   <chr>                                                              
 1 Nationalrat - (i) Liste gem  9 Bezgebegrenzungs-BVG Stand 30.0~
 2 Bekanntgabe von Ttigkeiten und Offenlegung von Einkommen gem  ~
 3 52688 (i) EINKOMMENSKATEGORIE Dipl.-Ing. Nikolaus Berlakovich fr ~
 4 2020: Meldefrist endet am 30.06.2021                               
 5 (i) LEITENDE STELLUNG IN AKTIENGESELLSCHAFT, GESELLSCHAFT MIT BESC~
 6 Rechtstrger Leitende Stellung                                     
 7 Dr. Lorenz Karall-Stiftung, Eisenstadt Ablauf der Meldefrist: Prs~
 8 Margaretha Lupac Stiftung Ersatzmitglied im Stiftungskuratorium *  
 9 Polster-Stiftung Vorsitzender des Stiftungsrates *                 
10 (i) SONSTIGE TTIGKEITEN, AUS DENEN VERMGENSVORTEILE ERZIELT WERD~
# ... with 11 more rows
…
